{
	"todos":[
		{
			"title":"Task1",
			"responsable":"Mark",
			"description":"lorem impsum",
			"priority":"low"
		},
		{
			"title":"Task2",
			"responsable":"Juan",
			"description":"lorem impsum",
			"priority":"medium"
		},
		{
			"title":"Task3",
			"responsable":"Luis",
			"description":"lorem impsum",
			"priority":"high"
		},
		{
			"title":"Task4",
			"responsable":"Luis",
			"description":"lorem impsum",
			"priority":"high"
		},
		{
			"title":"Task5",
			"responsable":"Pedro",
			"description":"lorem impsum",
			"priority":"low"
		},
		{
			"title":"Task6",
			"responsable":"Pedro",
			"description":"lorem impsum",
			"priority":"low"
		}
	]
}